{
  "restartable": "rs",
  "ignore": [
    ".git",
    "node_modules/",
    "public/",
    ".gitignore",
    "test/"
  ],
  "verbose": true,
  "watch": [],
  "env": {
    "NODE_ENV": "development"
  },
  "ext": "js json jsx",
  "script": "index.js"
}